<?xml version="1.0" encoding="UTF-8"?>
<session version="1.0">
<refactoring comment="Delete resource &apos;JSBSim_build&apos;" deleteContents="false" description="Delete resource &apos;JSBSim_build&apos;" element1="/JSBSim_build" flags="7" id="org.eclipse.ltk.core.refactoring.delete.resources" resources="1" stamp="1351533014796"/>
</session>